spinal_axi/axi_slave/axi_slave_test.vcd
$date
	Mon May 30 03:27:37 2022
$end
$version
	Icarus Verilog
$end
$timescale
	1ps
$end
$scope module axi_slave $end
$var wire 32 ! _zz_mem1_port1 [31:0] $end
$var wire 1 " _zz_mem1_port_1 $end
$var wire 1 # _zz_mem2_port_1 $end
$var wire 1 $ clk $end
$var wire 1 % fsm_wantExit $end
$var wire 1 & fsm_wantKill $end
$var wire 1 ' io_axi_in_ar_fire $end
$var wire 32 ( io_axi_in_ar_payload_addr [31:0] $end
$var wire 2 ) io_axi_in_ar_payload_burst [1:0] $end
$var wire 4 * io_axi_in_ar_payload_cache [3:0] $end
$var wire 4 + io_axi_in_ar_payload_id [3:0] $end
$var wire 8 , io_axi_in_ar_payload_len [7:0] $end
$var wire 1 - io_axi_in_ar_payload_lock $end
$var wire 3 . io_axi_in_ar_payload_prot [2:0] $end
$var wire 4 / io_axi_in_ar_payload_qos [3:0] $end
$var wire 4 0 io_axi_in_ar_payload_region [3:0] $end
$var wire 3 1 io_axi_in_ar_payload_size [2:0] $end
$var wire 1 2 io_axi_in_ar_valid $end
$var wire 1 3 io_axi_in_aw_fire $end
$var wire 32 4 io_axi_in_aw_payload_addr [31:0] $end
$var wire 2 5 io_axi_in_aw_payload_burst [1:0] $end
$var wire 4 6 io_axi_in_aw_payload_cache [3:0] $end
$var wire 4 7 io_axi_in_aw_payload_id [3:0] $end
$var wire 8 8 io_axi_in_aw_payload_len [7:0] $end
$var wire 1 9 io_axi_in_aw_payload_lock $end
$var wire 3 : io_axi_in_aw_payload_prot [2:0] $end
$var wire 4 ; io_axi_in_aw_payload_qos [3:0] $end
$var wire 4 < io_axi_in_aw_payload_region [3:0] $end
$var wire 3 = io_axi_in_aw_payload_size [2:0] $end
$var wire 1 > io_axi_in_aw_valid $end
$var wire 1 ? io_axi_in_b_fire $end
$var wire 1 @ io_axi_in_b_ready $end
$var wire 1 A io_axi_in_r_fire $end
$var wire 1 B io_axi_in_r_ready $end
$var wire 1 C io_axi_in_w_fire $end
$var wire 1 D io_axi_in_w_fire_1 $end
$var wire 1 E io_axi_in_w_fire_2 $end
$var wire 32 F io_axi_in_w_payload_data [31:0] $end
$var wire 1 G io_axi_in_w_payload_last $end
$var wire 4 H io_axi_in_w_payload_strb [3:0] $end
$var wire 1 I io_axi_in_w_valid $end
$var wire 1 J reset $end
$var wire 4 K user [3:0] $end
$var wire 1 L when_axi_slave_l64 $end
$var wire 12 M _zz_mem2_port [11:0] $end
$var wire 12 N _zz_mem1_port [11:0] $end
$var wire 12 O _zz_io_axi_in_r_payload_data [11:0] $end
$var wire 8 P _zz_axiCfgReg_full [7:0] $end
$var wire 8 Q _zz_axiCfgReg_AxADDR_3 [7:0] $end
$var wire 32 R _zz_axiCfgReg_AxADDR_2 [31:0] $end
$var wire 8 S _zz_axiCfgReg_AxADDR_1 [7:0] $end
$var wire 32 T _zz_axiCfgReg_AxADDR [31:0] $end
$var reg 32 U axiCfgReg_AxADDR [31:0] $end
$var reg 2 V axiCfgReg_AxBURST [1:0] $end
$var reg 4 W axiCfgReg_AxID [3:0] $end
$var reg 8 X axiCfgReg_AxLEN [7:0] $end
$var reg 3 Y axiCfgReg_AxSIZE [2:0] $end
$var reg 1 Z axiCfgReg_begin $end
$var reg 4 [ axiCfgReg_counter [3:0] $end
$var reg 1 \ axiCfgReg_full $end
$var reg 1 ] axiCfgReg_in_burst_trans $end
$var reg 3 ^ fsm_stateNext [2:0] $end
$var reg 48 _ fsm_stateNext_string [47:0] $end
$var reg 3 ` fsm_stateReg [2:0] $end
$var reg 48 a fsm_stateReg_string [47:0] $end
$var reg 1 b fsm_wantStart $end
$var reg 1 c io_axi_in_ar_ready $end
$var reg 1 d io_axi_in_aw_ready $end
$var reg 4 e io_axi_in_b_payload_id [3:0] $end
$var reg 2 f io_axi_in_b_payload_resp [1:0] $end
$var reg 4 g io_axi_in_b_payload_user [3:0] $end
$var reg 1 h io_axi_in_b_valid $end
$var reg 32 i io_axi_in_r_payload_data [31:0] $end
$var reg 4 j io_axi_in_r_payload_id [3:0] $end
$var reg 1 k io_axi_in_r_payload_last $end
$var reg 2 l io_axi_in_r_payload_resp [1:0] $end
$var reg 4 m io_axi_in_r_payload_user [3:0] $end
$var reg 1 n io_axi_in_r_valid $end
$var reg 1 o io_axi_in_w_ready $end
$upscope $end
$enddefinitions $end
#0
$dumpvars
0o
xn
b0 m
bx l
xk
bx j
bx i
xh
b0 g
bx f
bx e
xd
xc
xb
bx a
bx `
bx _
bx ^
0]
x\
bx [
xZ
bx Y
bx X
bx W
bx V
bx U
b0xxxxxxxx T
bx S
b0xxxxxxxx R
bx Q
b0xxxx P
bx O
bx N
bx M
xL
b0 K
0J
zI
bz H
zG
bz F
0E
0D
0C
zB
xA
z@
x?
z>
bz =
bz <
bz ;
bz :
z9
bz 8
bz 7
bz 6
bz 5
bz 4
x3
z2
bz 1
bz 0
bz /
bz .
z-
bz ,
bz +
bz *
bz )
bz (
x'
0&
0%
1$
0#
0"
bx !
$end
#500
b10010010100010001001100010001010010000000100000 _
0A
0'
0?
03
b1 ^
1b
b0 l
0n
0c
b0 f
0h
0d
b10000100100111101001111010101000010000000100000 a
0k
b0 i
0L
1\
b0 N
b0 M
b0 O
b0 j
b0 e
b0 `
0Z
b0 P
b0 [
b0 V
b1 T
b1 S
b1 R
b1 Q
b0 Y
b0 X
b0 U
b0 W
0$
1J
#1000
b10010010100010001001100010001010010000000100000 a
0b
0\
b1 `
0J
1$
#1500
0$
#2000
b10101110101111101000001010001000100010001010010 _
b10 ^
b1 7
b0 4
b1000 8
b0 =
b1 5
1>
1$
#2500
0$
#3000
b10101110101111101000100010000010101010001000001 _
b11 ^
13
1d
b10101110101111101000001010001000100010001010010 a
0\
b10 `
1$
#3500
0$
#4000
03
1L
b10101110101111101000100010000010101010001000001 a
0d
1Z
b1 P
b1 [
b1 V
b1000 X
b1 W
b11 `
1$
#4500
0$
#5000
0>
1$
#5500
0$
#6000
1"
1C
1D
1E
1o
1]
b101 F
1I
1$
#6500
0$
#7000
b1 N
b1 M
b1 O
b10 P
b10 [
b1 U
bx !
1$
#7500
0$
#8000
b10 F
b10 N
b10 M
b10 O
b11 P
b11 [
b10 U
bx !
1$
#8500
0$
#9000
b11 N
b11 M
b11 O
b100 P
b100 [
b11 U
bx !
1$
#9500
0$
#10000
b11 F
b100 N
b100 M
b100 O
b101 P
b101 [
b100 U
bx !
1$
#10500
0$
#11000
b10 F
b101 N
b101 M
b101 O
b110 P
b110 [
b101 U
bx !
1$
#11500
0$
#12000
b100 F
b110 N
b110 M
b110 O
b111 P
b111 [
b110 U
bx !
1$
#12500
0$
#13000
b11 F
1G
b10101110101111101010010010100110101000000100000 _
b100 ^
0]
0L
1\
b111 N
b111 M
b111 O
b1000 P
b1000 [
b111 U
bx !
1$
#13500
0$
#14000
b10010010100010001001100010001010010000000100000 _
b1 ^
0I
0G
1@
0"
1?
0E
0D
0C
1h
b10101110101111101010010010100110101000000100000 a
b1 e
0o
b100 `
b11 !
1$
#14500
0$
#15000
0@
0?
1L
b10010010100010001001100010001010010000000100000 a
0h
b0 e
0\
b1 `
1$
#15500
0$
#16000
b10100100101111101000001010001000100010001010010 _
b101 ^
b1 +
b0 (
b1000 ,
b0 1
b1 )
12
0L
0\
b0 N
b0 M
b101 !
b0 O
0Z
b0 P
b0 [
b0 V
b0 X
b0 U
b0 W
1$
#16500
0$
#17000
b10100100101111101000100010000010101010001000001 _
b110 ^
1'
1c
b10100100101111101000001010001000100010001010010 a
0\
1]
b101 `
1$
#17500
0$
#18000
02
0'
xA
1L
b10100100101111101000100010000010101010001000001 a
0c
1n
b1 j
b101 i
0]
1Z
b1 P
b1 [
b1 V
b1000 X
b1 W
b110 `
1$
#18500
0$
#19000
1]
1A
1B
1$
#19500
0$
#20000
b1 N
b1 M
b1 O
b10 P
b10 [
b1 U
1$
#20500
0$
#21000
b10 i
b10 N
b10 M
b10 !
b10 O
b11 P
b11 [
b10 U
1$
#21500
0$
#22000
b11 N
b11 M
b11 O
b100 P
b100 [
b11 U
1$
#22500
0$
#23000
b11 i
b100 N
b100 M
b11 !
b100 O
b101 P
b101 [
b100 U
1$
#23500
0$
#24000
b10 i
b101 N
b101 M
b10 !
b101 O
b110 P
b110 [
b101 U
1$
#24500
0$
#25000
b100 i
b110 N
b110 M
b100 !
b110 O
b111 P
b111 [
b110 U
1$
#25500
0$
#26000
b10010010100010001001100010001010010000000100000 _
b1 ^
1k
0]
0L
b11 i
1\
b111 N
b111 M
b11 !
b111 O
b1000 P
b1000 [
b111 U
1$
#26500
0$
#27000
0A
1L
0n
b10010010100010001001100010001010010000000100000 a
0k
b0 j
b0 i
0\
b1 `
1$
#27500
0$
#28000
0L
0\
b0 N
b0 M
b101 !
b0 O
0Z
b0 P
b0 [
b0 V
b0 X
b0 U
b0 W
1$
